{
  "family":"%FAMILY_NAME%",
  "containerDefinitions":[
    {
      "image":"%REPO_URI%:%BUILD_TAG%",
      "name":"%CONTAINER_NAME%",
      "cpu":%CPU_CAPACITY%,
      "memory":%MEMORY_CAPACITY%,
      "essential":true,
      "portMappings":[
        {
          "containerPort":%CONTAINER_PORT%,
          "hostPort":0
        }
      ],
      "logConfiguration": {
        "logDriver": "syslog",
        "options": {
          "syslog-address": "udp://172.31.40.86:5978",
          "tag": "%SERVICE_TAG%"
        }
      }
    }
  ]
}
